('C:\\Users\\Student\\Downloads\\swirll\\build\\getSN\\PKG-00.pkg',
 {'BINARY': 1,
  'DATA': 1,
  'EXECUTABLE': 1,
  'EXTENSION': 1,
  'PYMODULE': 1,
  'PYSOURCE': 1,
  'PYZ': 0},
 [('PYZ-00.pyz',
   'C:\\Users\\Student\\Downloads\\swirll\\build\\getSN\\PYZ-00.pyz',
   'PYZ'),
  ('struct', 'c:\\users\\student\\anaconda3\\lib\\struct.pyo', 'PYMODULE'),
  ('pyimod01_os_path',
   'c:\\users\\student\\anaconda3\\lib\\site-packages\\PyInstaller\\loader\\pyimod01_os_path.pyc',
   'PYMODULE'),
  ('pyimod02_archive',
   'c:\\users\\student\\anaconda3\\lib\\site-packages\\PyInstaller\\loader\\pyimod02_archive.pyc',
   'PYMODULE'),
  ('pyimod03_importers',
   'c:\\users\\student\\anaconda3\\lib\\site-packages\\PyInstaller\\loader\\pyimod03_importers.pyc',
   'PYMODULE'),
  ('pyiboot01_bootstrap',
   'c:\\users\\student\\anaconda3\\lib\\site-packages\\PyInstaller\\loader\\pyiboot01_bootstrap.py',
   'PYSOURCE'),
  ('pyi_rth_certifi',
   'c:\\users\\student\\anaconda3\\lib\\site-packages\\PyInstaller\\loader\\rthooks\\pyi_rth_certifi.py',
   'PYSOURCE'),
  ('getSN', 'C:\\Users\\Student\\Downloads\\swirll\\getSN.py', 'PYSOURCE'),
  ('api-ms-win-crt-runtime-l1-1-0.dll',
   'c:\\users\\student\\anaconda3\\api-ms-win-crt-runtime-l1-1-0.dll',
   'BINARY'),
  ('api-ms-win-crt-math-l1-1-0.dll',
   'c:\\users\\student\\anaconda3\\api-ms-win-crt-math-l1-1-0.dll',
   'BINARY'),
  ('api-ms-win-crt-heap-l1-1-0.dll',
   'c:\\users\\student\\anaconda3\\api-ms-win-crt-heap-l1-1-0.dll',
   'BINARY'),
  ('api-ms-win-crt-locale-l1-1-0.dll',
   'c:\\users\\student\\anaconda3\\api-ms-win-crt-locale-l1-1-0.dll',
   'BINARY'),
  ('VCRUNTIME140.dll',
   'c:\\users\\student\\anaconda3\\VCRUNTIME140.dll',
   'BINARY'),
  ('python37.dll', 'c:\\users\\student\\anaconda3\\python37.dll', 'BINARY'),
  ('api-ms-win-crt-stdio-l1-1-0.dll',
   'c:\\users\\student\\anaconda3\\api-ms-win-crt-stdio-l1-1-0.dll',
   'BINARY'),
  ('ucrtbase.dll', 'c:\\users\\student\\anaconda3\\ucrtbase.dll', 'BINARY'),
  ('api-ms-win-crt-string-l1-1-0.dll',
   'c:\\users\\student\\anaconda3\\api-ms-win-crt-string-l1-1-0.dll',
   'BINARY'),
  ('api-ms-win-crt-convert-l1-1-0.dll',
   'c:\\users\\student\\anaconda3\\api-ms-win-crt-convert-l1-1-0.dll',
   'BINARY'),
  ('api-ms-win-crt-environment-l1-1-0.dll',
   'c:\\users\\student\\anaconda3\\api-ms-win-crt-environment-l1-1-0.dll',
   'BINARY'),
  ('api-ms-win-crt-time-l1-1-0.dll',
   'c:\\users\\student\\anaconda3\\api-ms-win-crt-time-l1-1-0.dll',
   'BINARY'),
  ('api-ms-win-crt-conio-l1-1-0.dll',
   'c:\\users\\student\\anaconda3\\api-ms-win-crt-conio-l1-1-0.dll',
   'BINARY'),
  ('api-ms-win-crt-process-l1-1-0.dll',
   'c:\\users\\student\\anaconda3\\api-ms-win-crt-process-l1-1-0.dll',
   'BINARY'),
  ('api-ms-win-crt-filesystem-l1-1-0.dll',
   'c:\\users\\student\\anaconda3\\api-ms-win-crt-filesystem-l1-1-0.dll',
   'BINARY'),
  ('api-ms-win-core-file-l2-1-0.dll',
   'c:\\users\\student\\anaconda3\\api-ms-win-core-file-l2-1-0.dll',
   'BINARY'),
  ('api-ms-win-core-processenvironment-l1-1-0.dll',
   'c:\\users\\student\\anaconda3\\api-ms-win-core-processenvironment-l1-1-0.dll',
   'BINARY'),
  ('api-ms-win-core-localization-l1-2-0.dll',
   'c:\\users\\student\\anaconda3\\api-ms-win-core-localization-l1-2-0.dll',
   'BINARY'),
  ('api-ms-win-core-timezone-l1-1-0.dll',
   'c:\\users\\student\\anaconda3\\api-ms-win-core-timezone-l1-1-0.dll',
   'BINARY'),
  ('api-ms-win-core-console-l1-1-0.dll',
   'c:\\users\\student\\anaconda3\\api-ms-win-core-console-l1-1-0.dll',
   'BINARY'),
  ('api-ms-win-core-synch-l1-1-0.dll',
   'c:\\users\\student\\anaconda3\\api-ms-win-core-synch-l1-1-0.dll',
   'BINARY'),
  ('api-ms-win-core-processthreads-l1-1-1.dll',
   'c:\\users\\student\\anaconda3\\api-ms-win-core-processthreads-l1-1-1.dll',
   'BINARY'),
  ('api-ms-win-core-errorhandling-l1-1-0.dll',
   'c:\\users\\student\\anaconda3\\api-ms-win-core-errorhandling-l1-1-0.dll',
   'BINARY'),
  ('api-ms-win-core-sysinfo-l1-1-0.dll',
   'c:\\users\\student\\anaconda3\\api-ms-win-core-sysinfo-l1-1-0.dll',
   'BINARY'),
  ('api-ms-win-core-handle-l1-1-0.dll',
   'c:\\users\\student\\anaconda3\\api-ms-win-core-handle-l1-1-0.dll',
   'BINARY'),
  ('api-ms-win-core-memory-l1-1-0.dll',
   'c:\\users\\student\\anaconda3\\api-ms-win-core-memory-l1-1-0.dll',
   'BINARY'),
  ('api-ms-win-core-string-l1-1-0.dll',
   'c:\\users\\student\\anaconda3\\api-ms-win-core-string-l1-1-0.dll',
   'BINARY'),
  ('api-ms-win-core-interlocked-l1-1-0.dll',
   'c:\\users\\student\\anaconda3\\api-ms-win-core-interlocked-l1-1-0.dll',
   'BINARY'),
  ('api-ms-win-core-namedpipe-l1-1-0.dll',
   'c:\\users\\student\\anaconda3\\api-ms-win-core-namedpipe-l1-1-0.dll',
   'BINARY'),
  ('api-ms-win-core-util-l1-1-0.dll',
   'c:\\users\\student\\anaconda3\\api-ms-win-core-util-l1-1-0.dll',
   'BINARY'),
  ('api-ms-win-core-file-l1-1-0.dll',
   'c:\\users\\student\\anaconda3\\api-ms-win-core-file-l1-1-0.dll',
   'BINARY'),
  ('api-ms-win-core-synch-l1-2-0.dll',
   'c:\\users\\student\\anaconda3\\api-ms-win-core-synch-l1-2-0.dll',
   'BINARY'),
  ('api-ms-win-core-file-l1-2-0.dll',
   'c:\\users\\student\\anaconda3\\api-ms-win-core-file-l1-2-0.dll',
   'BINARY'),
  ('api-ms-win-core-libraryloader-l1-1-0.dll',
   'c:\\users\\student\\anaconda3\\api-ms-win-core-libraryloader-l1-1-0.dll',
   'BINARY'),
  ('api-ms-win-core-profile-l1-1-0.dll',
   'c:\\users\\student\\anaconda3\\api-ms-win-core-profile-l1-1-0.dll',
   'BINARY'),
  ('api-ms-win-core-datetime-l1-1-0.dll',
   'c:\\users\\student\\anaconda3\\api-ms-win-core-datetime-l1-1-0.dll',
   'BINARY'),
  ('api-ms-win-core-debug-l1-1-0.dll',
   'c:\\users\\student\\anaconda3\\api-ms-win-core-debug-l1-1-0.dll',
   'BINARY'),
  ('api-ms-win-core-rtlsupport-l1-1-0.dll',
   'c:\\users\\student\\anaconda3\\api-ms-win-core-rtlsupport-l1-1-0.dll',
   'BINARY'),
  ('api-ms-win-core-heap-l1-1-0.dll',
   'c:\\users\\student\\anaconda3\\api-ms-win-core-heap-l1-1-0.dll',
   'BINARY'),
  ('api-ms-win-core-processthreads-l1-1-0.dll',
   'c:\\users\\student\\anaconda3\\api-ms-win-core-processthreads-l1-1-0.dll',
   'BINARY'),
  ('select', 'c:\\users\\student\\anaconda3\\DLLs\\select.pyd', 'EXTENSION'),
  ('_socket', 'c:\\users\\student\\anaconda3\\DLLs\\_socket.pyd', 'EXTENSION'),
  ('_ssl', 'c:\\users\\student\\anaconda3\\DLLs\\_ssl.pyd', 'EXTENSION'),
  ('_lzma', 'c:\\users\\student\\anaconda3\\DLLs\\_lzma.pyd', 'EXTENSION'),
  ('_bz2', 'c:\\users\\student\\anaconda3\\DLLs\\_bz2.pyd', 'EXTENSION'),
  ('_hashlib',
   'c:\\users\\student\\anaconda3\\DLLs\\_hashlib.pyd',
   'EXTENSION'),
  ('unicodedata',
   'c:\\users\\student\\anaconda3\\DLLs\\unicodedata.pyd',
   'EXTENSION'),
  ('pyexpat', 'c:\\users\\student\\anaconda3\\DLLs\\pyexpat.pyd', 'EXTENSION'),
  ('_ctypes', 'c:\\users\\student\\anaconda3\\DLLs\\_ctypes.pyd', 'EXTENSION'),
  ('win32evtlog',
   'c:\\users\\student\\anaconda3\\lib\\site-packages\\win32\\win32evtlog.pyd',
   'EXTENSION'),
  ('win32api',
   'c:\\users\\student\\anaconda3\\lib\\site-packages\\win32\\win32api.pyd',
   'EXTENSION'),
  ('_queue', 'c:\\users\\student\\anaconda3\\DLLs\\_queue.pyd', 'EXTENSION'),
  ('_cffi_backend',
   'c:\\users\\student\\anaconda3\\lib\\site-packages\\_cffi_backend.cp37-win_amd64.pyd',
   'EXTENSION'),
  ('cryptography.hazmat.bindings._openssl',
   'c:\\users\\student\\anaconda3\\lib\\site-packages\\cryptography\\hazmat\\bindings\\_openssl.cp37-win_amd64.pyd',
   'EXTENSION'),
  ('_decimal',
   'c:\\users\\student\\anaconda3\\DLLs\\_decimal.pyd',
   'EXTENSION'),
  ('cryptography.hazmat.bindings._constant_time',
   'c:\\users\\student\\anaconda3\\lib\\site-packages\\cryptography\\hazmat\\bindings\\_constant_time.cp37-win_amd64.pyd',
   'EXTENSION'),
  ('libcrypto-1_1-x64.dll',
   'C:\\Users\\Student\\Anaconda3\\Library\\bin\\libcrypto-1_1-x64.dll',
   'BINARY'),
  ('libssl-1_1-x64.dll',
   'C:\\Users\\Student\\Anaconda3\\Library\\bin\\libssl-1_1-x64.dll',
   'BINARY'),
  ('pywintypes37.dll',
   'c:\\users\\student\\anaconda3\\lib\\site-packages\\win32\\pywintypes37.dll',
   'BINARY'),
  ('api-ms-win-crt-utility-l1-1-0.dll',
   'C:\\Users\\Student\\Anaconda3\\Library\\bin\\api-ms-win-crt-utility-l1-1-0.dll',
   'BINARY'),
  ('base_library.zip',
   'C:\\Users\\Student\\Downloads\\swirll\\build\\getSN\\base_library.zip',
   'DATA'),
  ('cryptography-2.7-py3.7.egg-info\\top_level.txt',
   'c:\\users\\student\\anaconda3\\lib\\site-packages\\cryptography-2.7.dist-info\\top_level.txt',
   'DATA'),
  ('cryptography-2.7-py3.7.egg-info\\METADATA',
   'c:\\users\\student\\anaconda3\\lib\\site-packages\\cryptography-2.7.dist-info\\METADATA',
   'DATA'),
  ('cryptography-2.7-py3.7.egg-info\\LICENSE.PSF',
   'c:\\users\\student\\anaconda3\\lib\\site-packages\\cryptography-2.7.dist-info\\LICENSE.PSF',
   'DATA'),
  ('certifi\\cacert.pem',
   'c:\\users\\student\\anaconda3\\lib\\site-packages\\certifi\\cacert.pem',
   'DATA'),
  ('cryptography-2.7-py3.7.egg-info\\LICENSE',
   'c:\\users\\student\\anaconda3\\lib\\site-packages\\cryptography-2.7.dist-info\\LICENSE',
   'DATA'),
  ('cryptography-2.7-py3.7.egg-info\\INSTALLER',
   'c:\\users\\student\\anaconda3\\lib\\site-packages\\cryptography-2.7.dist-info\\INSTALLER',
   'DATA'),
  ('cryptography-2.7-py3.7.egg-info\\AUTHORS.rst',
   'c:\\users\\student\\anaconda3\\lib\\site-packages\\cryptography-2.7.dist-info\\AUTHORS.rst',
   'DATA'),
  ('cryptography-2.7-py3.7.egg-info\\RECORD',
   'c:\\users\\student\\anaconda3\\lib\\site-packages\\cryptography-2.7.dist-info\\RECORD',
   'DATA'),
  ('cryptography-2.7-py3.7.egg-info\\WHEEL',
   'c:\\users\\student\\anaconda3\\lib\\site-packages\\cryptography-2.7.dist-info\\WHEEL',
   'DATA'),
  ('cryptography-2.7-py3.7.egg-info\\LICENSE.APACHE',
   'c:\\users\\student\\anaconda3\\lib\\site-packages\\cryptography-2.7.dist-info\\LICENSE.APACHE',
   'DATA'),
  ('cryptography-2.7-py3.7.egg-info\\LICENSE.BSD',
   'c:\\users\\student\\anaconda3\\lib\\site-packages\\cryptography-2.7.dist-info\\LICENSE.BSD',
   'DATA'),
  ('getSN.exe.manifest',
   'C:\\Users\\Student\\Downloads\\swirll\\build\\getSN\\getSN.exe.manifest',
   'BINARY'),
  ('pyi-windows-manifest-filename getSN.exe.manifest', '', 'OPTION')],
 False,
 False,
 False,
 [])
