('C:\\Users\\Student\\Downloads\\swirll\\build\\getSN\\PYZ-00.pyz',
 [('ssl', 'c:\\users\\student\\anaconda3\\lib\\ssl.py', 'PYMODULE'),
  ('calendar', 'c:\\users\\student\\anaconda3\\lib\\calendar.py', 'PYMODULE'),
  ('argparse', 'c:\\users\\student\\anaconda3\\lib\\argparse.py', 'PYMODULE'),
  ('textwrap', 'c:\\users\\student\\anaconda3\\lib\\textwrap.py', 'PYMODULE'),
  ('copy', 'c:\\users\\student\\anaconda3\\lib\\copy.py', 'PYMODULE'),
  ('gettext', 'c:\\users\\student\\anaconda3\\lib\\gettext.py', 'PYMODULE'),
  ('struct', 'c:\\users\\student\\anaconda3\\lib\\struct.py', 'PYMODULE'),
  ('datetime', 'c:\\users\\student\\anaconda3\\lib\\datetime.py', 'PYMODULE'),
  ('_strptime', 'c:\\users\\student\\anaconda3\\lib\\_strptime.py', 'PYMODULE'),
  ('base64', 'c:\\users\\student\\anaconda3\\lib\\base64.py', 'PYMODULE'),
  ('getopt', 'c:\\users\\student\\anaconda3\\lib\\getopt.py', 'PYMODULE'),
  ('socket', 'c:\\users\\student\\anaconda3\\lib\\socket.py', 'PYMODULE'),
  ('selectors', 'c:\\users\\student\\anaconda3\\lib\\selectors.py', 'PYMODULE'),
  ('os', 'c:\\users\\student\\anaconda3\\lib\\os.py', 'PYMODULE'),
  ('subprocess',
   'c:\\users\\student\\anaconda3\\lib\\subprocess.py',
   'PYMODULE'),
  ('threading', 'c:\\users\\student\\anaconda3\\lib\\threading.py', 'PYMODULE'),
  ('_threading_local',
   'c:\\users\\student\\anaconda3\\lib\\_threading_local.py',
   'PYMODULE'),
  ('contextlib',
   'c:\\users\\student\\anaconda3\\lib\\contextlib.py',
   'PYMODULE'),
  ('signal', 'c:\\users\\student\\anaconda3\\lib\\signal.py', 'PYMODULE'),
  ('ntpath', 'c:\\users\\student\\anaconda3\\lib\\ntpath.py', 'PYMODULE'),
  ('string', 'c:\\users\\student\\anaconda3\\lib\\string.py', 'PYMODULE'),
  ('genericpath',
   'c:\\users\\student\\anaconda3\\lib\\genericpath.py',
   'PYMODULE'),
  ('posixpath', 'c:\\users\\student\\anaconda3\\lib\\posixpath.py', 'PYMODULE'),
  ('stat', 'c:\\users\\student\\anaconda3\\lib\\stat.py', 'PYMODULE'),
  ('tokenize', 'c:\\users\\student\\anaconda3\\lib\\tokenize.py', 'PYMODULE'),
  ('token', 'c:\\users\\student\\anaconda3\\lib\\token.py', 'PYMODULE'),
  ('tracemalloc',
   'c:\\users\\student\\anaconda3\\lib\\tracemalloc.py',
   'PYMODULE'),
  ('pickle', 'c:\\users\\student\\anaconda3\\lib\\pickle.py', 'PYMODULE'),
  ('pprint', 'c:\\users\\student\\anaconda3\\lib\\pprint.py', 'PYMODULE'),
  ('doctest', 'c:\\users\\student\\anaconda3\\lib\\doctest.py', 'PYMODULE'),
  ('unittest',
   'c:\\users\\student\\anaconda3\\lib\\unittest\\__init__.py',
   'PYMODULE'),
  ('unittest.signals',
   'c:\\users\\student\\anaconda3\\lib\\unittest\\signals.py',
   'PYMODULE'),
  ('unittest.main',
   'c:\\users\\student\\anaconda3\\lib\\unittest\\main.py',
   'PYMODULE'),
  ('unittest.runner',
   'c:\\users\\student\\anaconda3\\lib\\unittest\\runner.py',
   'PYMODULE'),
  ('unittest.loader',
   'c:\\users\\student\\anaconda3\\lib\\unittest\\loader.py',
   'PYMODULE'),
  ('unittest.suite',
   'c:\\users\\student\\anaconda3\\lib\\unittest\\suite.py',
   'PYMODULE'),
  ('unittest.case',
   'c:\\users\\student\\anaconda3\\lib\\unittest\\case.py',
   'PYMODULE'),
  ('logging',
   'c:\\users\\student\\anaconda3\\lib\\logging\\__init__.py',
   'PYMODULE'),
  ('unittest.result',
   'c:\\users\\student\\anaconda3\\lib\\unittest\\result.py',
   'PYMODULE'),
  ('unittest.util',
   'c:\\users\\student\\anaconda3\\lib\\unittest\\util.py',
   'PYMODULE'),
  ('pdb', 'c:\\users\\student\\anaconda3\\lib\\pdb.py', 'PYMODULE'),
  ('pydoc', 'c:\\users\\student\\anaconda3\\lib\\pydoc.py', 'PYMODULE'),
  ('webbrowser',
   'c:\\users\\student\\anaconda3\\lib\\webbrowser.py',
   'PYMODULE'),
  ('shutil', 'c:\\users\\student\\anaconda3\\lib\\shutil.py', 'PYMODULE'),
  ('zipfile', 'c:\\users\\student\\anaconda3\\lib\\zipfile.py', 'PYMODULE'),
  ('py_compile',
   'c:\\users\\student\\anaconda3\\lib\\py_compile.py',
   'PYMODULE'),
  ('tarfile', 'c:\\users\\student\\anaconda3\\lib\\tarfile.py', 'PYMODULE'),
  ('gzip', 'c:\\users\\student\\anaconda3\\lib\\gzip.py', 'PYMODULE'),
  ('_compression',
   'c:\\users\\student\\anaconda3\\lib\\_compression.py',
   'PYMODULE'),
  ('lzma', 'c:\\users\\student\\anaconda3\\lib\\lzma.py', 'PYMODULE'),
  ('bz2', 'c:\\users\\student\\anaconda3\\lib\\bz2.py', 'PYMODULE'),
  ('email.message',
   'c:\\users\\student\\anaconda3\\lib\\email\\message.py',
   'PYMODULE'),
  ('email.policy',
   'c:\\users\\student\\anaconda3\\lib\\email\\policy.py',
   'PYMODULE'),
  ('email.contentmanager',
   'c:\\users\\student\\anaconda3\\lib\\email\\contentmanager.py',
   'PYMODULE'),
  ('email.quoprimime',
   'c:\\users\\student\\anaconda3\\lib\\email\\quoprimime.py',
   'PYMODULE'),
  ('email.headerregistry',
   'c:\\users\\student\\anaconda3\\lib\\email\\headerregistry.py',
   'PYMODULE'),
  ('email._header_value_parser',
   'c:\\users\\student\\anaconda3\\lib\\email\\_header_value_parser.py',
   'PYMODULE'),
  ('urllib',
   'c:\\users\\student\\anaconda3\\lib\\urllib\\__init__.py',
   'PYMODULE'),
  ('email.iterators',
   'c:\\users\\student\\anaconda3\\lib\\email\\iterators.py',
   'PYMODULE'),
  ('email.generator',
   'c:\\users\\student\\anaconda3\\lib\\email\\generator.py',
   'PYMODULE'),
  ('random', 'c:\\users\\student\\anaconda3\\lib\\random.py', 'PYMODULE'),
  ('bisect', 'c:\\users\\student\\anaconda3\\lib\\bisect.py', 'PYMODULE'),
  ('hashlib', 'c:\\users\\student\\anaconda3\\lib\\hashlib.py', 'PYMODULE'),
  ('email._encoded_words',
   'c:\\users\\student\\anaconda3\\lib\\email\\_encoded_words.py',
   'PYMODULE'),
  ('email.charset',
   'c:\\users\\student\\anaconda3\\lib\\email\\charset.py',
   'PYMODULE'),
  ('email.encoders',
   'c:\\users\\student\\anaconda3\\lib\\email\\encoders.py',
   'PYMODULE'),
  ('email.base64mime',
   'c:\\users\\student\\anaconda3\\lib\\email\\base64mime.py',
   'PYMODULE'),
  ('email._policybase',
   'c:\\users\\student\\anaconda3\\lib\\email\\_policybase.py',
   'PYMODULE'),
  ('email.header',
   'c:\\users\\student\\anaconda3\\lib\\email\\header.py',
   'PYMODULE'),
  ('email.errors',
   'c:\\users\\student\\anaconda3\\lib\\email\\errors.py',
   'PYMODULE'),
  ('email.utils',
   'c:\\users\\student\\anaconda3\\lib\\email\\utils.py',
   'PYMODULE'),
  ('email._parseaddr',
   'c:\\users\\student\\anaconda3\\lib\\email\\_parseaddr.py',
   'PYMODULE'),
  ('email',
   'c:\\users\\student\\anaconda3\\lib\\email\\__init__.py',
   'PYMODULE'),
  ('email.parser',
   'c:\\users\\student\\anaconda3\\lib\\email\\parser.py',
   'PYMODULE'),
  ('email.feedparser',
   'c:\\users\\student\\anaconda3\\lib\\email\\feedparser.py',
   'PYMODULE'),
  ('quopri', 'c:\\users\\student\\anaconda3\\lib\\quopri.py', 'PYMODULE'),
  ('uu', 'c:\\users\\student\\anaconda3\\lib\\uu.py', 'PYMODULE'),
  ('optparse', 'c:\\users\\student\\anaconda3\\lib\\optparse.py', 'PYMODULE'),
  ('http.server',
   'c:\\users\\student\\anaconda3\\lib\\http\\server.py',
   'PYMODULE'),
  ('http', 'c:\\users\\student\\anaconda3\\lib\\http\\__init__.py', 'PYMODULE'),
  ('socketserver',
   'c:\\users\\student\\anaconda3\\lib\\socketserver.py',
   'PYMODULE'),
  ('mimetypes', 'c:\\users\\student\\anaconda3\\lib\\mimetypes.py', 'PYMODULE'),
  ('http.client',
   'c:\\users\\student\\anaconda3\\lib\\http\\client.py',
   'PYMODULE'),
  ('html', 'c:\\users\\student\\anaconda3\\lib\\html\\__init__.py', 'PYMODULE'),
  ('html.entities',
   'c:\\users\\student\\anaconda3\\lib\\html\\entities.py',
   'PYMODULE'),
  ('pydoc_data.topics',
   'c:\\users\\student\\anaconda3\\lib\\pydoc_data\\topics.py',
   'PYMODULE'),
  ('pydoc_data',
   'c:\\users\\student\\anaconda3\\lib\\pydoc_data\\__init__.py',
   'PYMODULE'),
  ('tty', 'c:\\users\\student\\anaconda3\\lib\\tty.py', 'PYMODULE'),
  ('tempfile', 'c:\\users\\student\\anaconda3\\lib\\tempfile.py', 'PYMODULE'),
  ('urllib.parse',
   'c:\\users\\student\\anaconda3\\lib\\urllib\\parse.py',
   'PYMODULE'),
  ('platform', 'c:\\users\\student\\anaconda3\\lib\\platform.py', 'PYMODULE'),
  ('plistlib', 'c:\\users\\student\\anaconda3\\lib\\plistlib.py', 'PYMODULE'),
  ('xml.parsers.expat',
   'c:\\users\\student\\anaconda3\\lib\\xml\\parsers\\expat.py',
   'PYMODULE'),
  ('xml.parsers',
   'c:\\users\\student\\anaconda3\\lib\\xml\\parsers\\__init__.py',
   'PYMODULE'),
  ('xml', 'c:\\users\\student\\anaconda3\\lib\\xml\\__init__.py', 'PYMODULE'),
  ('xml.sax.expatreader',
   'c:\\users\\student\\anaconda3\\lib\\xml\\sax\\expatreader.py',
   'PYMODULE'),
  ('xml.sax.saxutils',
   'c:\\users\\student\\anaconda3\\lib\\xml\\sax\\saxutils.py',
   'PYMODULE'),
  ('urllib.request',
   'c:\\users\\student\\anaconda3\\lib\\urllib\\request.py',
   'PYMODULE'),
  ('getpass', 'c:\\users\\student\\anaconda3\\lib\\getpass.py', 'PYMODULE'),
  ('nturl2path',
   'c:\\users\\student\\anaconda3\\lib\\nturl2path.py',
   'PYMODULE'),
  ('ftplib', 'c:\\users\\student\\anaconda3\\lib\\ftplib.py', 'PYMODULE'),
  ('netrc', 'c:\\users\\student\\anaconda3\\lib\\netrc.py', 'PYMODULE'),
  ('http.cookiejar',
   'c:\\users\\student\\anaconda3\\lib\\http\\cookiejar.py',
   'PYMODULE'),
  ('urllib.response',
   'c:\\users\\student\\anaconda3\\lib\\urllib\\response.py',
   'PYMODULE'),
  ('urllib.error',
   'c:\\users\\student\\anaconda3\\lib\\urllib\\error.py',
   'PYMODULE'),
  ('xml.sax',
   'c:\\users\\student\\anaconda3\\lib\\xml\\sax\\__init__.py',
   'PYMODULE'),
  ('xml.sax.handler',
   'c:\\users\\student\\anaconda3\\lib\\xml\\sax\\handler.py',
   'PYMODULE'),
  ('xml.sax._exceptions',
   'c:\\users\\student\\anaconda3\\lib\\xml\\sax\\_exceptions.py',
   'PYMODULE'),
  ('xml.sax.xmlreader',
   'c:\\users\\student\\anaconda3\\lib\\xml\\sax\\xmlreader.py',
   'PYMODULE'),
  ('pkgutil', 'c:\\users\\student\\anaconda3\\lib\\pkgutil.py', 'PYMODULE'),
  ('importlib',
   'c:\\users\\student\\anaconda3\\lib\\importlib\\__init__.py',
   'PYMODULE'),
  ('importlib.abc',
   'c:\\users\\student\\anaconda3\\lib\\importlib\\abc.py',
   'PYMODULE'),
  ('importlib.util',
   'c:\\users\\student\\anaconda3\\lib\\importlib\\util.py',
   'PYMODULE'),
  ('importlib.machinery',
   'c:\\users\\student\\anaconda3\\lib\\importlib\\machinery.py',
   'PYMODULE'),
  ('importlib._bootstrap_external',
   'c:\\users\\student\\anaconda3\\lib\\importlib\\_bootstrap_external.py',
   'PYMODULE'),
  ('importlib._bootstrap',
   'c:\\users\\student\\anaconda3\\lib\\importlib\\_bootstrap.py',
   'PYMODULE'),
  ('runpy', 'c:\\users\\student\\anaconda3\\lib\\runpy.py', 'PYMODULE'),
  ('shlex', 'c:\\users\\student\\anaconda3\\lib\\shlex.py', 'PYMODULE'),
  ('readline',
   'c:\\users\\student\\anaconda3\\lib\\site-packages\\readline.py',
   'PYMODULE'),
  ('pyreadline.console',
   'c:\\users\\student\\anaconda3\\lib\\site-packages\\pyreadline\\console\\__init__.py',
   'PYMODULE'),
  ('pyreadline.console.console',
   'c:\\users\\student\\anaconda3\\lib\\site-packages\\pyreadline\\console\\console.py',
   'PYMODULE'),
  ('pyreadline.console.event',
   'c:\\users\\student\\anaconda3\\lib\\site-packages\\pyreadline\\console\\event.py',
   'PYMODULE'),
  ('ctypes.wintypes',
   'c:\\users\\student\\anaconda3\\lib\\ctypes\\wintypes.py',
   'PYMODULE'),
  ('ctypes',
   'c:\\users\\student\\anaconda3\\lib\\ctypes\\__init__.py',
   'PYMODULE'),
  ('ctypes._endian',
   'c:\\users\\student\\anaconda3\\lib\\ctypes\\_endian.py',
   'PYMODULE'),
  ('ctypes.util',
   'c:\\users\\student\\anaconda3\\lib\\ctypes\\util.py',
   'PYMODULE'),
  ('ctypes._aix',
   'c:\\users\\student\\anaconda3\\lib\\ctypes\\_aix.py',
   'PYMODULE'),
  ('ctypes.macholib.dyld',
   'c:\\users\\student\\anaconda3\\lib\\ctypes\\macholib\\dyld.py',
   'PYMODULE'),
  ('ctypes.macholib',
   'c:\\users\\student\\anaconda3\\lib\\ctypes\\macholib\\__init__.py',
   'PYMODULE'),
  ('ctypes.macholib.dylib',
   'c:\\users\\student\\anaconda3\\lib\\ctypes\\macholib\\dylib.py',
   'PYMODULE'),
  ('ctypes.macholib.framework',
   'c:\\users\\student\\anaconda3\\lib\\ctypes\\macholib\\framework.py',
   'PYMODULE'),
  ('pyreadline.console.ansi',
   'c:\\users\\student\\anaconda3\\lib\\site-packages\\pyreadline\\console\\ansi.py',
   'PYMODULE'),
  ('pyreadline.keysyms',
   'c:\\users\\student\\anaconda3\\lib\\site-packages\\pyreadline\\keysyms\\__init__.py',
   'PYMODULE'),
  ('pyreadline.keysyms.keysyms',
   'c:\\users\\student\\anaconda3\\lib\\site-packages\\pyreadline\\keysyms\\keysyms.py',
   'PYMODULE'),
  ('pyreadline.keysyms.common',
   'c:\\users\\student\\anaconda3\\lib\\site-packages\\pyreadline\\keysyms\\common.py',
   'PYMODULE'),
  ('pyreadline.keysyms.ironpython_keysyms',
   'c:\\users\\student\\anaconda3\\lib\\site-packages\\pyreadline\\keysyms\\ironpython_keysyms.py',
   'PYMODULE'),
  ('pyreadline.keysyms.winconstants',
   'c:\\users\\student\\anaconda3\\lib\\site-packages\\pyreadline\\keysyms\\winconstants.py',
   'PYMODULE'),
  ('pyreadline.logger',
   'c:\\users\\student\\anaconda3\\lib\\site-packages\\pyreadline\\logger.py',
   'PYMODULE'),
  ('logging.handlers',
   'c:\\users\\student\\anaconda3\\lib\\logging\\handlers.py',
   'PYMODULE'),
  ('win32evtlogutil',
   'c:\\users\\student\\anaconda3\\lib\\site-packages\\win32\\lib\\win32evtlogutil.py',
   'PYMODULE'),
  ('winerror',
   'c:\\users\\student\\anaconda3\\lib\\site-packages\\win32\\lib\\winerror.py',
   'PYMODULE'),
  ('win32con',
   'c:\\users\\student\\anaconda3\\lib\\site-packages\\win32\\lib\\win32con.py',
   'PYMODULE'),
  ('smtplib', 'c:\\users\\student\\anaconda3\\lib\\smtplib.py', 'PYMODULE'),
  ('hmac', 'c:\\users\\student\\anaconda3\\lib\\hmac.py', 'PYMODULE'),
  ('queue', 'c:\\users\\student\\anaconda3\\lib\\queue.py', 'PYMODULE'),
  ('pyreadline.unicode_helper',
   'c:\\users\\student\\anaconda3\\lib\\site-packages\\pyreadline\\unicode_helper.py',
   'PYMODULE'),
  ('pyreadline.py3k_compat',
   'c:\\users\\student\\anaconda3\\lib\\site-packages\\pyreadline\\py3k_compat.py',
   'PYMODULE'),
  ('pyreadline.console.ironpython_console',
   'c:\\users\\student\\anaconda3\\lib\\site-packages\\pyreadline\\console\\ironpython_console.py',
   'PYMODULE'),
  ('pyreadline',
   'c:\\users\\student\\anaconda3\\lib\\site-packages\\pyreadline\\__init__.py',
   'PYMODULE'),
  ('pyreadline.release',
   'c:\\users\\student\\anaconda3\\lib\\site-packages\\pyreadline\\release.py',
   'PYMODULE'),
  ('pyreadline.modes',
   'c:\\users\\student\\anaconda3\\lib\\site-packages\\pyreadline\\modes\\__init__.py',
   'PYMODULE'),
  ('pyreadline.modes.vi',
   'c:\\users\\student\\anaconda3\\lib\\site-packages\\pyreadline\\modes\\vi.py',
   'PYMODULE'),
  ('pyreadline.lineeditor.history',
   'c:\\users\\student\\anaconda3\\lib\\site-packages\\pyreadline\\lineeditor\\history.py',
   'PYMODULE'),
  ('pyreadline.lineeditor.lineobj',
   'c:\\users\\student\\anaconda3\\lib\\site-packages\\pyreadline\\lineeditor\\lineobj.py',
   'PYMODULE'),
  ('pyreadline.lineeditor.wordmatcher',
   'c:\\users\\student\\anaconda3\\lib\\site-packages\\pyreadline\\lineeditor\\wordmatcher.py',
   'PYMODULE'),
  ('pyreadline.modes.notemacs',
   'c:\\users\\student\\anaconda3\\lib\\site-packages\\pyreadline\\modes\\notemacs.py',
   'PYMODULE'),
  ('pyreadline.modes.emacs',
   'c:\\users\\student\\anaconda3\\lib\\site-packages\\pyreadline\\modes\\emacs.py',
   'PYMODULE'),
  ('pyreadline.modes.basemode',
   'c:\\users\\student\\anaconda3\\lib\\site-packages\\pyreadline\\modes\\basemode.py',
   'PYMODULE'),
  ('pyreadline.error',
   'c:\\users\\student\\anaconda3\\lib\\site-packages\\pyreadline\\error.py',
   'PYMODULE'),
  ('pyreadline.lineeditor',
   'c:\\users\\student\\anaconda3\\lib\\site-packages\\pyreadline\\lineeditor\\__init__.py',
   'PYMODULE'),
  ('pyreadline.clipboard',
   'c:\\users\\student\\anaconda3\\lib\\site-packages\\pyreadline\\clipboard\\__init__.py',
   'PYMODULE'),
  ('pyreadline.clipboard.win32_clipboard',
   'c:\\users\\student\\anaconda3\\lib\\site-packages\\pyreadline\\clipboard\\win32_clipboard.py',
   'PYMODULE'),
  ('pyreadline.clipboard.no_clipboard',
   'c:\\users\\student\\anaconda3\\lib\\site-packages\\pyreadline\\clipboard\\no_clipboard.py',
   'PYMODULE'),
  ('pyreadline.clipboard.ironpython_clipboard',
   'c:\\users\\student\\anaconda3\\lib\\site-packages\\pyreadline\\clipboard\\ironpython_clipboard.py',
   'PYMODULE'),
  ('pyreadline.rlmain',
   'c:\\users\\student\\anaconda3\\lib\\site-packages\\pyreadline\\rlmain.py',
   'PYMODULE'),
  ('glob', 'c:\\users\\student\\anaconda3\\lib\\glob.py', 'PYMODULE'),
  ('code', 'c:\\users\\student\\anaconda3\\lib\\code.py', 'PYMODULE'),
  ('codeop', 'c:\\users\\student\\anaconda3\\lib\\codeop.py', 'PYMODULE'),
  ('dis', 'c:\\users\\student\\anaconda3\\lib\\dis.py', 'PYMODULE'),
  ('opcode', 'c:\\users\\student\\anaconda3\\lib\\opcode.py', 'PYMODULE'),
  ('bdb', 'c:\\users\\student\\anaconda3\\lib\\bdb.py', 'PYMODULE'),
  ('cmd', 'c:\\users\\student\\anaconda3\\lib\\cmd.py', 'PYMODULE'),
  ('inspect', 'c:\\users\\student\\anaconda3\\lib\\inspect.py', 'PYMODULE'),
  ('ast', 'c:\\users\\student\\anaconda3\\lib\\ast.py', 'PYMODULE'),
  ('difflib', 'c:\\users\\student\\anaconda3\\lib\\difflib.py', 'PYMODULE'),
  ('__future__',
   'c:\\users\\student\\anaconda3\\lib\\__future__.py',
   'PYMODULE'),
  ('_compat_pickle',
   'c:\\users\\student\\anaconda3\\lib\\_compat_pickle.py',
   'PYMODULE'),
  ('fnmatch', 'c:\\users\\student\\anaconda3\\lib\\fnmatch.py', 'PYMODULE'),
  ('stringprep',
   'c:\\users\\student\\anaconda3\\lib\\stringprep.py',
   'PYMODULE'),
  ('_py_abc', 'c:\\users\\student\\anaconda3\\lib\\_py_abc.py', 'PYMODULE'),
  ('typing', 'c:\\users\\student\\anaconda3\\lib\\typing.py', 'PYMODULE'),
  ('requests',
   'c:\\users\\student\\anaconda3\\lib\\site-packages\\requests\\__init__.py',
   'PYMODULE'),
  ('requests.status_codes',
   'c:\\users\\student\\anaconda3\\lib\\site-packages\\requests\\status_codes.py',
   'PYMODULE'),
  ('requests.structures',
   'c:\\users\\student\\anaconda3\\lib\\site-packages\\requests\\structures.py',
   'PYMODULE'),
  ('requests.compat',
   'c:\\users\\student\\anaconda3\\lib\\site-packages\\requests\\compat.py',
   'PYMODULE'),
  ('http.cookies',
   'c:\\users\\student\\anaconda3\\lib\\http\\cookies.py',
   'PYMODULE'),
  ('json', 'c:\\users\\student\\anaconda3\\lib\\json\\__init__.py', 'PYMODULE'),
  ('json.encoder',
   'c:\\users\\student\\anaconda3\\lib\\json\\encoder.py',
   'PYMODULE'),
  ('json.decoder',
   'c:\\users\\student\\anaconda3\\lib\\json\\decoder.py',
   'PYMODULE'),
  ('json.scanner',
   'c:\\users\\student\\anaconda3\\lib\\json\\scanner.py',
   'PYMODULE'),
  ('requests.api',
   'c:\\users\\student\\anaconda3\\lib\\site-packages\\requests\\api.py',
   'PYMODULE'),
  ('requests.sessions',
   'c:\\users\\student\\anaconda3\\lib\\site-packages\\requests\\sessions.py',
   'PYMODULE'),
  ('requests.adapters',
   'c:\\users\\student\\anaconda3\\lib\\site-packages\\requests\\adapters.py',
   'PYMODULE'),
  ('urllib3.contrib.socks',
   'c:\\users\\student\\anaconda3\\lib\\site-packages\\urllib3\\contrib\\socks.py',
   'PYMODULE'),
  ('urllib3.util.url',
   'c:\\users\\student\\anaconda3\\lib\\site-packages\\urllib3\\util\\url.py',
   'PYMODULE'),
  ('urllib3.connectionpool',
   'c:\\users\\student\\anaconda3\\lib\\site-packages\\urllib3\\connectionpool.py',
   'PYMODULE'),
  ('urllib3.util.queue',
   'c:\\users\\student\\anaconda3\\lib\\site-packages\\urllib3\\util\\queue.py',
   'PYMODULE'),
  ('urllib3.util.timeout',
   'c:\\users\\student\\anaconda3\\lib\\site-packages\\urllib3\\util\\timeout.py',
   'PYMODULE'),
  ('urllib3.util.response',
   'c:\\users\\student\\anaconda3\\lib\\site-packages\\urllib3\\util\\response.py',
   'PYMODULE'),
  ('urllib3.util.request',
   'c:\\users\\student\\anaconda3\\lib\\site-packages\\urllib3\\util\\request.py',
   'PYMODULE'),
  ('urllib3.util.connection',
   'c:\\users\\student\\anaconda3\\lib\\site-packages\\urllib3\\util\\connection.py',
   'PYMODULE'),
  ('urllib3.contrib._appengine_environ',
   'c:\\users\\student\\anaconda3\\lib\\site-packages\\urllib3\\contrib\\_appengine_environ.py',
   'PYMODULE'),
  ('urllib3.util.wait',
   'c:\\users\\student\\anaconda3\\lib\\site-packages\\urllib3\\util\\wait.py',
   'PYMODULE'),
  ('urllib3.request',
   'c:\\users\\student\\anaconda3\\lib\\site-packages\\urllib3\\request.py',
   'PYMODULE'),
  ('urllib3.filepost',
   'c:\\users\\student\\anaconda3\\lib\\site-packages\\urllib3\\filepost.py',
   'PYMODULE'),
  ('urllib3.fields',
   'c:\\users\\student\\anaconda3\\lib\\site-packages\\urllib3\\fields.py',
   'PYMODULE'),
  ('urllib3.packages.six',
   'c:\\users\\student\\anaconda3\\lib\\site-packages\\urllib3\\packages\\six.py',
   'PYMODULE'),
  ('urllib3.packages',
   'c:\\users\\student\\anaconda3\\lib\\site-packages\\urllib3\\packages\\__init__.py',
   'PYMODULE'),
  ('urllib3.packages.ssl_match_hostname',
   'c:\\users\\student\\anaconda3\\lib\\site-packages\\urllib3\\packages\\ssl_match_hostname\\__init__.py',
   'PYMODULE'),
  ('urllib3.packages.ssl_match_hostname._implementation',
   'c:\\users\\student\\anaconda3\\lib\\site-packages\\urllib3\\packages\\ssl_match_hostname\\_implementation.py',
   'PYMODULE'),
  ('ipaddress', 'c:\\users\\student\\anaconda3\\lib\\ipaddress.py', 'PYMODULE'),
  ('urllib3.connection',
   'c:\\users\\student\\anaconda3\\lib\\site-packages\\urllib3\\connection.py',
   'PYMODULE'),
  ('urllib3._collections',
   'c:\\users\\student\\anaconda3\\lib\\site-packages\\urllib3\\_collections.py',
   'PYMODULE'),
  ('urllib3.util.ssl_',
   'c:\\users\\student\\anaconda3\\lib\\site-packages\\urllib3\\util\\ssl_.py',
   'PYMODULE'),
  ('socks',
   'c:\\users\\student\\anaconda3\\lib\\site-packages\\socks.py',
   'PYMODULE'),
  ('win_inet_pton',
   'c:\\users\\student\\anaconda3\\lib\\site-packages\\win_inet_pton.py',
   'PYMODULE'),
  ('urllib3.util.retry',
   'c:\\users\\student\\anaconda3\\lib\\site-packages\\urllib3\\util\\retry.py',
   'PYMODULE'),
  ('urllib3.util',
   'c:\\users\\student\\anaconda3\\lib\\site-packages\\urllib3\\util\\__init__.py',
   'PYMODULE'),
  ('urllib3.response',
   'c:\\users\\student\\anaconda3\\lib\\site-packages\\urllib3\\response.py',
   'PYMODULE'),
  ('urllib3.poolmanager',
   'c:\\users\\student\\anaconda3\\lib\\site-packages\\urllib3\\poolmanager.py',
   'PYMODULE'),
  ('requests._internal_utils',
   'c:\\users\\student\\anaconda3\\lib\\site-packages\\requests\\_internal_utils.py',
   'PYMODULE'),
  ('requests.hooks',
   'c:\\users\\student\\anaconda3\\lib\\site-packages\\requests\\hooks.py',
   'PYMODULE'),
  ('requests.cookies',
   'c:\\users\\student\\anaconda3\\lib\\site-packages\\requests\\cookies.py',
   'PYMODULE'),
  ('dummy_threading',
   'c:\\users\\student\\anaconda3\\lib\\dummy_threading.py',
   'PYMODULE'),
  ('_dummy_thread',
   'c:\\users\\student\\anaconda3\\lib\\_dummy_thread.py',
   'PYMODULE'),
  ('requests.auth',
   'c:\\users\\student\\anaconda3\\lib\\site-packages\\requests\\auth.py',
   'PYMODULE'),
  ('requests.models',
   'c:\\users\\student\\anaconda3\\lib\\site-packages\\requests\\models.py',
   'PYMODULE'),
  ('idna',
   'c:\\users\\student\\anaconda3\\lib\\site-packages\\idna\\__init__.py',
   'PYMODULE'),
  ('idna.core',
   'c:\\users\\student\\anaconda3\\lib\\site-packages\\idna\\core.py',
   'PYMODULE'),
  ('idna.uts46data',
   'c:\\users\\student\\anaconda3\\lib\\site-packages\\idna\\uts46data.py',
   'PYMODULE'),
  ('idna.intranges',
   'c:\\users\\student\\anaconda3\\lib\\site-packages\\idna\\intranges.py',
   'PYMODULE'),
  ('idna.idnadata',
   'c:\\users\\student\\anaconda3\\lib\\site-packages\\idna\\idnadata.py',
   'PYMODULE'),
  ('idna.package_data',
   'c:\\users\\student\\anaconda3\\lib\\site-packages\\idna\\package_data.py',
   'PYMODULE'),
  ('requests.packages',
   'c:\\users\\student\\anaconda3\\lib\\site-packages\\requests\\packages.py',
   'PYMODULE'),
  ('requests.utils',
   'c:\\users\\student\\anaconda3\\lib\\site-packages\\requests\\utils.py',
   'PYMODULE'),
  ('requests.certs',
   'c:\\users\\student\\anaconda3\\lib\\site-packages\\requests\\certs.py',
   'PYMODULE'),
  ('certifi',
   'c:\\users\\student\\anaconda3\\lib\\site-packages\\certifi\\__init__.py',
   'PYMODULE'),
  ('certifi.core',
   'c:\\users\\student\\anaconda3\\lib\\site-packages\\certifi\\core.py',
   'PYMODULE'),
  ('requests.__version__',
   'c:\\users\\student\\anaconda3\\lib\\site-packages\\requests\\__version__.py',
   'PYMODULE'),
  ('urllib3.exceptions',
   'c:\\users\\student\\anaconda3\\lib\\site-packages\\urllib3\\exceptions.py',
   'PYMODULE'),
  ('cryptography',
   'c:\\users\\student\\anaconda3\\lib\\site-packages\\cryptography\\__init__.py',
   'PYMODULE'),
  ('cryptography.hazmat.bindings.openssl.binding',
   'c:\\users\\student\\anaconda3\\lib\\site-packages\\cryptography\\hazmat\\bindings\\openssl\\binding.py',
   'PYMODULE'),
  ('cryptography.hazmat.bindings',
   'c:\\users\\student\\anaconda3\\lib\\site-packages\\cryptography\\hazmat\\bindings\\__init__.py',
   'PYMODULE'),
  ('cryptography.hazmat',
   'c:\\users\\student\\anaconda3\\lib\\site-packages\\cryptography\\hazmat\\__init__.py',
   'PYMODULE'),
  ('cryptography.exceptions',
   'c:\\users\\student\\anaconda3\\lib\\site-packages\\cryptography\\exceptions.py',
   'PYMODULE'),
  ('cryptography.hazmat.bindings.openssl._conditional',
   'c:\\users\\student\\anaconda3\\lib\\site-packages\\cryptography\\hazmat\\bindings\\openssl\\_conditional.py',
   'PYMODULE'),
  ('cryptography.hazmat.bindings.openssl',
   'c:\\users\\student\\anaconda3\\lib\\site-packages\\cryptography\\hazmat\\bindings\\openssl\\__init__.py',
   'PYMODULE'),
  ('cryptography.hazmat.backends.openssl.ec',
   'c:\\users\\student\\anaconda3\\lib\\site-packages\\cryptography\\hazmat\\backends\\openssl\\ec.py',
   'PYMODULE'),
  ('cryptography.hazmat.primitives.asymmetric.ec',
   'c:\\users\\student\\anaconda3\\lib\\site-packages\\cryptography\\hazmat\\primitives\\asymmetric\\ec.py',
   'PYMODULE'),
  ('cryptography.hazmat._oid',
   'c:\\users\\student\\anaconda3\\lib\\site-packages\\cryptography\\hazmat\\_oid.py',
   'PYMODULE'),
  ('cryptography.x509.oid',
   'c:\\users\\student\\anaconda3\\lib\\site-packages\\cryptography\\x509\\oid.py',
   'PYMODULE'),
  ('six',
   'c:\\users\\student\\anaconda3\\lib\\site-packages\\six.py',
   'PYMODULE'),
  ('cryptography.hazmat.primitives.asymmetric',
   'c:\\users\\student\\anaconda3\\lib\\site-packages\\cryptography\\hazmat\\primitives\\asymmetric\\__init__.py',
   'PYMODULE'),
  ('cryptography.hazmat.primitives.asymmetric.dh',
   'c:\\users\\student\\anaconda3\\lib\\site-packages\\cryptography\\hazmat\\primitives\\asymmetric\\dh.py',
   'PYMODULE'),
  ('cryptography.hazmat.primitives.asymmetric.rsa',
   'c:\\users\\student\\anaconda3\\lib\\site-packages\\cryptography\\hazmat\\primitives\\asymmetric\\rsa.py',
   'PYMODULE'),
  ('fractions', 'c:\\users\\student\\anaconda3\\lib\\fractions.py', 'PYMODULE'),
  ('numbers', 'c:\\users\\student\\anaconda3\\lib\\numbers.py', 'PYMODULE'),
  ('decimal', 'c:\\users\\student\\anaconda3\\lib\\decimal.py', 'PYMODULE'),
  ('_pydecimal',
   'c:\\users\\student\\anaconda3\\lib\\_pydecimal.py',
   'PYMODULE'),
  ('contextvars',
   'c:\\users\\student\\anaconda3\\lib\\contextvars.py',
   'PYMODULE'),
  ('cryptography.hazmat.primitives.asymmetric.ed25519',
   'c:\\users\\student\\anaconda3\\lib\\site-packages\\cryptography\\hazmat\\primitives\\asymmetric\\ed25519.py',
   'PYMODULE'),
  ('cryptography.hazmat.primitives.asymmetric.dsa',
   'c:\\users\\student\\anaconda3\\lib\\site-packages\\cryptography\\hazmat\\primitives\\asymmetric\\dsa.py',
   'PYMODULE'),
  ('cryptography.hazmat.primitives.serialization',
   'c:\\users\\student\\anaconda3\\lib\\site-packages\\cryptography\\hazmat\\primitives\\serialization\\__init__.py',
   'PYMODULE'),
  ('cryptography.hazmat.primitives.serialization.ssh',
   'c:\\users\\student\\anaconda3\\lib\\site-packages\\cryptography\\hazmat\\primitives\\serialization\\ssh.py',
   'PYMODULE'),
  ('cryptography.hazmat.primitives.serialization.base',
   'c:\\users\\student\\anaconda3\\lib\\site-packages\\cryptography\\hazmat\\primitives\\serialization\\base.py',
   'PYMODULE'),
  ('cryptography.hazmat.primitives.hashes',
   'c:\\users\\student\\anaconda3\\lib\\site-packages\\cryptography\\hazmat\\primitives\\hashes.py',
   'PYMODULE'),
  ('cryptography.hazmat.primitives',
   'c:\\users\\student\\anaconda3\\lib\\site-packages\\cryptography\\hazmat\\primitives\\__init__.py',
   'PYMODULE'),
  ('cryptography.hazmat.primitives.constant_time',
   'c:\\users\\student\\anaconda3\\lib\\site-packages\\cryptography\\hazmat\\primitives\\constant_time.py',
   'PYMODULE'),
  ('cryptography.hazmat.backends.openssl.utils',
   'c:\\users\\student\\anaconda3\\lib\\site-packages\\cryptography\\hazmat\\backends\\openssl\\utils.py',
   'PYMODULE'),
  ('cryptography.hazmat.primitives.asymmetric.utils',
   'c:\\users\\student\\anaconda3\\lib\\site-packages\\cryptography\\hazmat\\primitives\\asymmetric\\utils.py',
   'PYMODULE'),
  ('asn1crypto.algos',
   'c:\\users\\student\\anaconda3\\lib\\site-packages\\asn1crypto\\algos.py',
   'PYMODULE'),
  ('asn1crypto',
   'c:\\users\\student\\anaconda3\\lib\\site-packages\\asn1crypto\\__init__.py',
   'PYMODULE'),
  ('asn1crypto._teletex_codec',
   'c:\\users\\student\\anaconda3\\lib\\site-packages\\asn1crypto\\_teletex_codec.py',
   'PYMODULE'),
  ('asn1crypto.version',
   'c:\\users\\student\\anaconda3\\lib\\site-packages\\asn1crypto\\version.py',
   'PYMODULE'),
  ('asn1crypto.core',
   'c:\\users\\student\\anaconda3\\lib\\site-packages\\asn1crypto\\core.py',
   'PYMODULE'),
  ('asn1crypto.parser',
   'c:\\users\\student\\anaconda3\\lib\\site-packages\\asn1crypto\\parser.py',
   'PYMODULE'),
  ('asn1crypto._types',
   'c:\\users\\student\\anaconda3\\lib\\site-packages\\asn1crypto\\_types.py',
   'PYMODULE'),
  ('asn1crypto._ordereddict',
   'c:\\users\\student\\anaconda3\\lib\\site-packages\\asn1crypto\\_ordereddict.py',
   'PYMODULE'),
  ('asn1crypto.util',
   'c:\\users\\student\\anaconda3\\lib\\site-packages\\asn1crypto\\util.py',
   'PYMODULE'),
  ('asn1crypto._inet',
   'c:\\users\\student\\anaconda3\\lib\\site-packages\\asn1crypto\\_inet.py',
   'PYMODULE'),
  ('asn1crypto._iri',
   'c:\\users\\student\\anaconda3\\lib\\site-packages\\asn1crypto\\_iri.py',
   'PYMODULE'),
  ('asn1crypto._int',
   'c:\\users\\student\\anaconda3\\lib\\site-packages\\asn1crypto\\_int.py',
   'PYMODULE'),
  ('asn1crypto._errors',
   'c:\\users\\student\\anaconda3\\lib\\site-packages\\asn1crypto\\_errors.py',
   'PYMODULE'),
  ('cryptography.hazmat.backends.openssl.cmac',
   'c:\\users\\student\\anaconda3\\lib\\site-packages\\cryptography\\hazmat\\backends\\openssl\\cmac.py',
   'PYMODULE'),
  ('cryptography.hazmat.primitives.ciphers.modes',
   'c:\\users\\student\\anaconda3\\lib\\site-packages\\cryptography\\hazmat\\primitives\\ciphers\\modes.py',
   'PYMODULE'),
  ('cryptography.hazmat.primitives.ciphers',
   'c:\\users\\student\\anaconda3\\lib\\site-packages\\cryptography\\hazmat\\primitives\\ciphers\\__init__.py',
   'PYMODULE'),
  ('cryptography.hazmat.primitives.ciphers.base',
   'c:\\users\\student\\anaconda3\\lib\\site-packages\\cryptography\\hazmat\\primitives\\ciphers\\base.py',
   'PYMODULE'),
  ('cryptography.hazmat.backends.openssl.encode_asn1',
   'c:\\users\\student\\anaconda3\\lib\\site-packages\\cryptography\\hazmat\\backends\\openssl\\encode_asn1.py',
   'PYMODULE'),
  ('cryptography.x509.name',
   'c:\\users\\student\\anaconda3\\lib\\site-packages\\cryptography\\x509\\name.py',
   'PYMODULE'),
  ('cryptography.hazmat.backends.openssl.dh',
   'c:\\users\\student\\anaconda3\\lib\\site-packages\\cryptography\\hazmat\\backends\\openssl\\dh.py',
   'PYMODULE'),
  ('cryptography.hazmat.backends.openssl.ed25519',
   'c:\\users\\student\\anaconda3\\lib\\site-packages\\cryptography\\hazmat\\backends\\openssl\\ed25519.py',
   'PYMODULE'),
  ('cryptography.hazmat.backends.openssl.ocsp',
   'c:\\users\\student\\anaconda3\\lib\\site-packages\\cryptography\\hazmat\\backends\\openssl\\ocsp.py',
   'PYMODULE'),
  ('cryptography.x509.ocsp',
   'c:\\users\\student\\anaconda3\\lib\\site-packages\\cryptography\\x509\\ocsp.py',
   'PYMODULE'),
  ('cryptography.x509.base',
   'c:\\users\\student\\anaconda3\\lib\\site-packages\\cryptography\\x509\\base.py',
   'PYMODULE'),
  ('cryptography.x509.extensions',
   'c:\\users\\student\\anaconda3\\lib\\site-packages\\cryptography\\x509\\extensions.py',
   'PYMODULE'),
  ('cryptography.x509.general_name',
   'c:\\users\\student\\anaconda3\\lib\\site-packages\\cryptography\\x509\\general_name.py',
   'PYMODULE'),
  ('cryptography.x509.certificate_transparency',
   'c:\\users\\student\\anaconda3\\lib\\site-packages\\cryptography\\x509\\certificate_transparency.py',
   'PYMODULE'),
  ('asn1crypto.keys',
   'c:\\users\\student\\anaconda3\\lib\\site-packages\\asn1crypto\\keys.py',
   'PYMODULE'),
  ('cryptography.hazmat.backends.openssl.hmac',
   'c:\\users\\student\\anaconda3\\lib\\site-packages\\cryptography\\hazmat\\backends\\openssl\\hmac.py',
   'PYMODULE'),
  ('cryptography.hazmat.backends.openssl.hashes',
   'c:\\users\\student\\anaconda3\\lib\\site-packages\\cryptography\\hazmat\\backends\\openssl\\hashes.py',
   'PYMODULE'),
  ('cryptography.hazmat.backends.openssl.x25519',
   'c:\\users\\student\\anaconda3\\lib\\site-packages\\cryptography\\hazmat\\backends\\openssl\\x25519.py',
   'PYMODULE'),
  ('cryptography.hazmat.primitives.asymmetric.x25519',
   'c:\\users\\student\\anaconda3\\lib\\site-packages\\cryptography\\hazmat\\primitives\\asymmetric\\x25519.py',
   'PYMODULE'),
  ('cryptography.hazmat.backends',
   'c:\\users\\student\\anaconda3\\lib\\site-packages\\cryptography\\hazmat\\backends\\__init__.py',
   'PYMODULE'),
  ('cryptography.hazmat.backends.openssl.decode_asn1',
   'c:\\users\\student\\anaconda3\\lib\\site-packages\\cryptography\\hazmat\\backends\\openssl\\decode_asn1.py',
   'PYMODULE'),
  ('cryptography.hazmat.backends.openssl.dsa',
   'c:\\users\\student\\anaconda3\\lib\\site-packages\\cryptography\\hazmat\\backends\\openssl\\dsa.py',
   'PYMODULE'),
  ('cryptography.hazmat.backends.openssl.backend',
   'c:\\users\\student\\anaconda3\\lib\\site-packages\\cryptography\\hazmat\\backends\\openssl\\backend.py',
   'PYMODULE'),
  ('cryptography.hazmat.primitives.kdf.scrypt',
   'c:\\users\\student\\anaconda3\\lib\\site-packages\\cryptography\\hazmat\\primitives\\kdf\\scrypt.py',
   'PYMODULE'),
  ('cryptography.hazmat.primitives.kdf',
   'c:\\users\\student\\anaconda3\\lib\\site-packages\\cryptography\\hazmat\\primitives\\kdf\\__init__.py',
   'PYMODULE'),
  ('cryptography.hazmat.primitives.ciphers.algorithms',
   'c:\\users\\student\\anaconda3\\lib\\site-packages\\cryptography\\hazmat\\primitives\\ciphers\\algorithms.py',
   'PYMODULE'),
  ('cryptography.hazmat.primitives.asymmetric.padding',
   'c:\\users\\student\\anaconda3\\lib\\site-packages\\cryptography\\hazmat\\primitives\\asymmetric\\padding.py',
   'PYMODULE'),
  ('cryptography.hazmat.backends.openssl.poly1305',
   'c:\\users\\student\\anaconda3\\lib\\site-packages\\cryptography\\hazmat\\backends\\openssl\\poly1305.py',
   'PYMODULE'),
  ('cryptography.hazmat.backends.openssl.x448',
   'c:\\users\\student\\anaconda3\\lib\\site-packages\\cryptography\\hazmat\\backends\\openssl\\x448.py',
   'PYMODULE'),
  ('cryptography.hazmat.primitives.asymmetric.x448',
   'c:\\users\\student\\anaconda3\\lib\\site-packages\\cryptography\\hazmat\\primitives\\asymmetric\\x448.py',
   'PYMODULE'),
  ('cryptography.hazmat.backends.interfaces',
   'c:\\users\\student\\anaconda3\\lib\\site-packages\\cryptography\\hazmat\\backends\\interfaces.py',
   'PYMODULE'),
  ('cryptography.hazmat.backends.openssl.rsa',
   'c:\\users\\student\\anaconda3\\lib\\site-packages\\cryptography\\hazmat\\backends\\openssl\\rsa.py',
   'PYMODULE'),
  ('cryptography.hazmat.backends.openssl.ed448',
   'c:\\users\\student\\anaconda3\\lib\\site-packages\\cryptography\\hazmat\\backends\\openssl\\ed448.py',
   'PYMODULE'),
  ('cryptography.hazmat.primitives.asymmetric.ed448',
   'c:\\users\\student\\anaconda3\\lib\\site-packages\\cryptography\\hazmat\\primitives\\asymmetric\\ed448.py',
   'PYMODULE'),
  ('cryptography.hazmat.backends.openssl.ciphers',
   'c:\\users\\student\\anaconda3\\lib\\site-packages\\cryptography\\hazmat\\backends\\openssl\\ciphers.py',
   'PYMODULE'),
  ('cryptography.hazmat.backends.openssl',
   'c:\\users\\student\\anaconda3\\lib\\site-packages\\cryptography\\hazmat\\backends\\openssl\\__init__.py',
   'PYMODULE'),
  ('cryptography.hazmat.backends.openssl.aead',
   'c:\\users\\student\\anaconda3\\lib\\site-packages\\cryptography\\hazmat\\backends\\openssl\\aead.py',
   'PYMODULE'),
  ('cryptography.hazmat.primitives.ciphers.aead',
   'c:\\users\\student\\anaconda3\\lib\\site-packages\\cryptography\\hazmat\\primitives\\ciphers\\aead.py',
   'PYMODULE'),
  ('cryptography.hazmat.backends.openssl.x509',
   'c:\\users\\student\\anaconda3\\lib\\site-packages\\cryptography\\hazmat\\backends\\openssl\\x509.py',
   'PYMODULE'),
  ('cryptography.x509',
   'c:\\users\\student\\anaconda3\\lib\\site-packages\\cryptography\\x509\\__init__.py',
   'PYMODULE'),
  ('cryptography.utils',
   'c:\\users\\student\\anaconda3\\lib\\site-packages\\cryptography\\utils.py',
   'PYMODULE'),
  ('cryptography.__about__',
   'c:\\users\\student\\anaconda3\\lib\\site-packages\\cryptography\\__about__.py',
   'PYMODULE'),
  ('urllib3.contrib.pyopenssl',
   'c:\\users\\student\\anaconda3\\lib\\site-packages\\urllib3\\contrib\\pyopenssl.py',
   'PYMODULE'),
  ('OpenSSL.crypto',
   'c:\\users\\student\\anaconda3\\lib\\site-packages\\OpenSSL\\crypto.py',
   'PYMODULE'),
  ('OpenSSL',
   'c:\\users\\student\\anaconda3\\lib\\site-packages\\OpenSSL\\__init__.py',
   'PYMODULE'),
  ('OpenSSL.version',
   'c:\\users\\student\\anaconda3\\lib\\site-packages\\OpenSSL\\version.py',
   'PYMODULE'),
  ('OpenSSL._util',
   'c:\\users\\student\\anaconda3\\lib\\site-packages\\OpenSSL\\_util.py',
   'PYMODULE'),
  ('urllib3.packages.backports.makefile',
   'c:\\users\\student\\anaconda3\\lib\\site-packages\\urllib3\\packages\\backports\\makefile.py',
   'PYMODULE'),
  ('urllib3.packages.backports',
   'c:\\users\\student\\anaconda3\\lib\\site-packages\\urllib3\\packages\\backports\\__init__.py',
   'PYMODULE'),
  ('OpenSSL.SSL',
   'c:\\users\\student\\anaconda3\\lib\\site-packages\\OpenSSL\\SSL.py',
   'PYMODULE'),
  ('urllib3.contrib',
   'c:\\users\\student\\anaconda3\\lib\\site-packages\\urllib3\\contrib\\__init__.py',
   'PYMODULE'),
  ('requests.exceptions',
   'c:\\users\\student\\anaconda3\\lib\\site-packages\\requests\\exceptions.py',
   'PYMODULE'),
  ('chardet',
   'c:\\users\\student\\anaconda3\\lib\\site-packages\\chardet\\__init__.py',
   'PYMODULE'),
  ('chardet.version',
   'c:\\users\\student\\anaconda3\\lib\\site-packages\\chardet\\version.py',
   'PYMODULE'),
  ('chardet.universaldetector',
   'c:\\users\\student\\anaconda3\\lib\\site-packages\\chardet\\universaldetector.py',
   'PYMODULE'),
  ('chardet.sbcsgroupprober',
   'c:\\users\\student\\anaconda3\\lib\\site-packages\\chardet\\sbcsgroupprober.py',
   'PYMODULE'),
  ('chardet.langturkishmodel',
   'c:\\users\\student\\anaconda3\\lib\\site-packages\\chardet\\langturkishmodel.py',
   'PYMODULE'),
  ('chardet.hebrewprober',
   'c:\\users\\student\\anaconda3\\lib\\site-packages\\chardet\\hebrewprober.py',
   'PYMODULE'),
  ('chardet.charsetprober',
   'c:\\users\\student\\anaconda3\\lib\\site-packages\\chardet\\charsetprober.py',
   'PYMODULE'),
  ('chardet.langhebrewmodel',
   'c:\\users\\student\\anaconda3\\lib\\site-packages\\chardet\\langhebrewmodel.py',
   'PYMODULE'),
  ('chardet.langthaimodel',
   'c:\\users\\student\\anaconda3\\lib\\site-packages\\chardet\\langthaimodel.py',
   'PYMODULE'),
  ('chardet.langbulgarianmodel',
   'c:\\users\\student\\anaconda3\\lib\\site-packages\\chardet\\langbulgarianmodel.py',
   'PYMODULE'),
  ('chardet.langgreekmodel',
   'c:\\users\\student\\anaconda3\\lib\\site-packages\\chardet\\langgreekmodel.py',
   'PYMODULE'),
  ('chardet.langcyrillicmodel',
   'c:\\users\\student\\anaconda3\\lib\\site-packages\\chardet\\langcyrillicmodel.py',
   'PYMODULE'),
  ('chardet.sbcharsetprober',
   'c:\\users\\student\\anaconda3\\lib\\site-packages\\chardet\\sbcharsetprober.py',
   'PYMODULE'),
  ('chardet.mbcsgroupprober',
   'c:\\users\\student\\anaconda3\\lib\\site-packages\\chardet\\mbcsgroupprober.py',
   'PYMODULE'),
  ('chardet.euctwprober',
   'c:\\users\\student\\anaconda3\\lib\\site-packages\\chardet\\euctwprober.py',
   'PYMODULE'),
  ('chardet.mbcssm',
   'c:\\users\\student\\anaconda3\\lib\\site-packages\\chardet\\mbcssm.py',
   'PYMODULE'),
  ('chardet.chardistribution',
   'c:\\users\\student\\anaconda3\\lib\\site-packages\\chardet\\chardistribution.py',
   'PYMODULE'),
  ('chardet.jisfreq',
   'c:\\users\\student\\anaconda3\\lib\\site-packages\\chardet\\jisfreq.py',
   'PYMODULE'),
  ('chardet.big5freq',
   'c:\\users\\student\\anaconda3\\lib\\site-packages\\chardet\\big5freq.py',
   'PYMODULE'),
  ('chardet.gb2312freq',
   'c:\\users\\student\\anaconda3\\lib\\site-packages\\chardet\\gb2312freq.py',
   'PYMODULE'),
  ('chardet.euckrfreq',
   'c:\\users\\student\\anaconda3\\lib\\site-packages\\chardet\\euckrfreq.py',
   'PYMODULE'),
  ('chardet.euctwfreq',
   'c:\\users\\student\\anaconda3\\lib\\site-packages\\chardet\\euctwfreq.py',
   'PYMODULE'),
  ('chardet.codingstatemachine',
   'c:\\users\\student\\anaconda3\\lib\\site-packages\\chardet\\codingstatemachine.py',
   'PYMODULE'),
  ('chardet.mbcharsetprober',
   'c:\\users\\student\\anaconda3\\lib\\site-packages\\chardet\\mbcharsetprober.py',
   'PYMODULE'),
  ('chardet.big5prober',
   'c:\\users\\student\\anaconda3\\lib\\site-packages\\chardet\\big5prober.py',
   'PYMODULE'),
  ('chardet.cp949prober',
   'c:\\users\\student\\anaconda3\\lib\\site-packages\\chardet\\cp949prober.py',
   'PYMODULE'),
  ('chardet.euckrprober',
   'c:\\users\\student\\anaconda3\\lib\\site-packages\\chardet\\euckrprober.py',
   'PYMODULE'),
  ('chardet.gb2312prober',
   'c:\\users\\student\\anaconda3\\lib\\site-packages\\chardet\\gb2312prober.py',
   'PYMODULE'),
  ('chardet.eucjpprober',
   'c:\\users\\student\\anaconda3\\lib\\site-packages\\chardet\\eucjpprober.py',
   'PYMODULE'),
  ('chardet.jpcntx',
   'c:\\users\\student\\anaconda3\\lib\\site-packages\\chardet\\jpcntx.py',
   'PYMODULE'),
  ('chardet.sjisprober',
   'c:\\users\\student\\anaconda3\\lib\\site-packages\\chardet\\sjisprober.py',
   'PYMODULE'),
  ('chardet.utf8prober',
   'c:\\users\\student\\anaconda3\\lib\\site-packages\\chardet\\utf8prober.py',
   'PYMODULE'),
  ('chardet.latin1prober',
   'c:\\users\\student\\anaconda3\\lib\\site-packages\\chardet\\latin1prober.py',
   'PYMODULE'),
  ('chardet.escprober',
   'c:\\users\\student\\anaconda3\\lib\\site-packages\\chardet\\escprober.py',
   'PYMODULE'),
  ('chardet.escsm',
   'c:\\users\\student\\anaconda3\\lib\\site-packages\\chardet\\escsm.py',
   'PYMODULE'),
  ('chardet.enums',
   'c:\\users\\student\\anaconda3\\lib\\site-packages\\chardet\\enums.py',
   'PYMODULE'),
  ('chardet.charsetgroupprober',
   'c:\\users\\student\\anaconda3\\lib\\site-packages\\chardet\\charsetgroupprober.py',
   'PYMODULE'),
  ('chardet.compat',
   'c:\\users\\student\\anaconda3\\lib\\site-packages\\chardet\\compat.py',
   'PYMODULE'),
  ('urllib3',
   'c:\\users\\student\\anaconda3\\lib\\site-packages\\urllib3\\__init__.py',
   'PYMODULE')])
